SystemC/trace_weightstationary.vcd
$date
     Dec 13, 2025       16:10:29
$end

$version
 SystemC 3.0.1-Accellera --- Mar  2 2025 23:51:21
$end

$timescale
     1 ns
$end

$scope module SystemC $end
$var wire    1  aaaaa  clk       $end
$var wire    1  aaaab  reset       $end
$var wire    1  aaaac  done_tile       $end
$var wire    1  aaaad  go       $end
$var wire    1  aaaae  input_sram_we       $end
$var wire    1  aaaaf  input_sram_re       $end
$var wire    8  aaaag  input_sram_addr_row [7:0]  $end
$var wire    8  aaaah  input_sram_addr_col [7:0]  $end
$var wire   32  aaaai  input_sram_din [31:0]  $end
$var wire   32  aaaaj  input_sram_dout [31:0]  $end
$var wire    1  aaaak  weight_sram_we       $end
$var wire    1  aaaal  weight_sram_re       $end
$var wire    8  aaaam  weight_sram_addr_row [7:0]  $end
$var wire    8  aaaan  weight_sram_addr_col [7:0]  $end
$var wire   32  aaaao  weight_sram_din [31:0]  $end
$var wire   32  aaaap  weight_sram_dout [31:0]  $end
$var wire    1  aaaaq  input_index_sram_we       $end
$var wire    1  aaaar  input_index_sram_re       $end
$var wire    8  aaaas  input_index_sram_addr_row [7:0]  $end
$var wire    8  aaaat  input_index_sram_addr_col [7:0]  $end
$var wire   32  aaaau  input_index_sram_din [31:0]  $end
$var wire   32  aaaav  input_index_sram_dout [31:0]  $end
$var wire    1  aaaaw  output_sram_we       $end
$var wire    1  aaaax  output_sram_re       $end
$var wire    8  aaaay  output_sram_addr_row [7:0]  $end
$var wire    8  aaaaz  output_sram_addr_col [7:0]  $end
$var wire   32  aaaba  output_sram_din_0 [31:0]  $end
$var wire   32  aaabb  output_sram_din_1 [31:0]  $end
$var wire   32  aaabc  output_sram_din_2 [31:0]  $end
$var wire   32  aaabd  output_sram_din_3 [31:0]  $end
$var wire   32  aaabe  output_sram_din_4 [31:0]  $end
$var wire   32  aaabf  output_sram_din_5 [31:0]  $end
$var wire   32  aaabg  output_sram_din_6 [31:0]  $end
$var wire   32  aaabh  output_sram_din_7 [31:0]  $end
$var wire   32  aaabi  output_sram_din_8 [31:0]  $end
$var wire   32  aaabj  output_sram_din_9 [31:0]  $end
$var wire   32  aaabk  output_sram_din_10 [31:0]  $end
$var wire   32  aaabl  output_sram_din_11 [31:0]  $end
$var wire   32  aaabm  output_sram_din_12 [31:0]  $end
$var wire   32  aaabn  output_sram_din_13 [31:0]  $end
$var wire   32  aaabo  output_sram_din_14 [31:0]  $end
$var wire   32  aaabp  output_sram_din_15 [31:0]  $end
$var wire   32  aaabq  output_sram_din_16 [31:0]  $end
$var wire   32  aaabr  output_sram_din_17 [31:0]  $end
$var wire   32  aaabs  output_sram_din_18 [31:0]  $end
$var wire   32  aaabt  output_sram_din_19 [31:0]  $end
$var wire   32  aaabu  output_sram_din_20 [31:0]  $end
$var wire   32  aaabv  output_sram_din_21 [31:0]  $end
$var wire   32  aaabw  output_sram_din_22 [31:0]  $end
$var wire   32  aaabx  output_sram_din_23 [31:0]  $end
$var wire   32  aaaby  output_sram_din_24 [31:0]  $end
$var wire   32  aaabz  output_sram_din_25 [31:0]  $end
$var wire   32  aaaca  output_sram_din_26 [31:0]  $end
$var wire   32  aaacb  output_sram_din_27 [31:0]  $end
$var wire   32  aaacc  output_sram_din_28 [31:0]  $end
$var wire   32  aaacd  output_sram_din_29 [31:0]  $end
$var wire   32  aaace  output_sram_din_30 [31:0]  $end
$var wire   32  aaacf  output_sram_din_31 [31:0]  $end
$var wire   32  aaacg  output_sram_dout [31:0]  $end
$var wire   32  aaach  partial_sum_PE_0_0 [31:0]  $end
$var wire   32  aaaci  partial_sum_PE_0_1 [31:0]  $end
$var wire   32  aaacj  partial_sum_PE_0_2 [31:0]  $end
$var wire   32  aaack  partial_sum_PE_1_0 [31:0]  $end
$var wire   32  aaacl  partial_sum_PE_1_1 [31:0]  $end
$var wire   32  aaacm  partial_sum_PE_1_2 [31:0]  $end
$var wire   32  aaacn  partial_sum_PE_2_0 [31:0]  $end
$var wire   32  aaaco  partial_sum_PE_2_1 [31:0]  $end
$var wire   32  aaacp  partial_sum_PE_2_2 [31:0]  $end
$var wire   32  aaacq  partial_sum_PE_3_0 [31:0]  $end
$var wire   32  aaacr  partial_sum_PE_3_1 [31:0]  $end
$var wire   32  aaacs  partial_sum_PE_3_2 [31:0]  $end
$var wire    8  aaact  X_in_0_mux_0 [7:0]  $end
$var wire    8  aaacu  X_in_0_mux_1 [7:0]  $end
$var wire    8  aaacv  X_in_0_mux_2 [7:0]  $end
$var wire    8  aaacw  X_in_0_mux_3 [7:0]  $end
$var wire    8  aaacx  X_in_0_mux_4 [7:0]  $end
$var wire    8  aaacy  X_in_0_mux_5 [7:0]  $end
$var wire    8  aaacz  X_in_0_mux_6 [7:0]  $end
$var wire    8  aaada  X_in_0_mux_7 [7:0]  $end
$var wire    8  aaadb  X_in_0_mux_8 [7:0]  $end
$var wire    8  aaadc  X_in_0_mux_9 [7:0]  $end
$var wire    8  aaadd  X_in_0_mux_10 [7:0]  $end
$var wire    8  aaade  X_in_0_mux_11 [7:0]  $end
$var wire    8  aaadf  X_in_0_mux_12 [7:0]  $end
$var wire    8  aaadg  X_in_0_mux_13 [7:0]  $end
$var wire    8  aaadh  X_in_0_mux_14 [7:0]  $end
$var wire    8  aaadi  X_in_0_mux_15 [7:0]  $end
$var wire    8  aaadj  X_in_1_mux_0 [7:0]  $end
$var wire    8  aaadk  X_in_1_mux_1 [7:0]  $end
$var wire    8  aaadl  X_in_1_mux_2 [7:0]  $end
$var wire    8  aaadm  X_in_1_mux_3 [7:0]  $end
$var wire    8  aaadn  X_in_1_mux_4 [7:0]  $end
$var wire    8  aaado  X_in_1_mux_5 [7:0]  $end
$var wire    8  aaadp  X_in_1_mux_6 [7:0]  $end
$var wire    8  aaadq  X_in_1_mux_7 [7:0]  $end
$var wire    8  aaadr  X_in_1_mux_8 [7:0]  $end
$var wire    8  aaads  X_in_1_mux_9 [7:0]  $end
$var wire    8  aaadt  X_in_1_mux_10 [7:0]  $end
$var wire    8  aaadu  X_in_1_mux_11 [7:0]  $end
$var wire    8  aaadv  X_in_1_mux_12 [7:0]  $end
$var wire    8  aaadw  X_in_1_mux_13 [7:0]  $end
$var wire    8  aaadx  X_in_1_mux_14 [7:0]  $end
$var wire    8  aaady  X_in_1_mux_15 [7:0]  $end
$var wire    8  aaadz  X_in_2_mux_0 [7:0]  $end
$var wire    8  aaaea  X_in_2_mux_1 [7:0]  $end
$var wire    8  aaaeb  X_in_2_mux_2 [7:0]  $end
$var wire    8  aaaec  X_in_2_mux_3 [7:0]  $end
$var wire    8  aaaed  X_in_2_mux_4 [7:0]  $end
$var wire    8  aaaee  X_in_2_mux_5 [7:0]  $end
$var wire    8  aaaef  X_in_2_mux_6 [7:0]  $end
$var wire    8  aaaeg  X_in_2_mux_7 [7:0]  $end
$var wire    8  aaaeh  X_in_2_mux_8 [7:0]  $end
$var wire    8  aaaei  X_in_2_mux_9 [7:0]  $end
$var wire    8  aaaej  X_in_2_mux_10 [7:0]  $end
$var wire    8  aaaek  X_in_2_mux_11 [7:0]  $end
$var wire    8  aaael  X_in_2_mux_12 [7:0]  $end
$var wire    8  aaaem  X_in_2_mux_13 [7:0]  $end
$var wire    8  aaaen  X_in_2_mux_14 [7:0]  $end
$var wire    8  aaaeo  X_in_2_mux_15 [7:0]  $end
$var wire   32  aaaep  psum_row0_rightmost [31:0]  $end
$var wire   32  aaaeq  psum_row1_rightmost [31:0]  $end
$var wire   32  aaaer  psum_row2_rightmost [31:0]  $end
$var wire   32  aaaes  psum_row3_rightmost [31:0]  $end
$upscope $end
$enddefinitions  $end

$comment
All initial values are dumped below at time 0 sec = 0 timescale units.
$end

$dumpvars
0aaaaa
1aaaab
0aaaac
0aaaad
0aaaae
0aaaaf
b0 aaaag
b0 aaaah
b0 aaaai
b0 aaaaj
0aaaak
0aaaal
b0 aaaam
b0 aaaan
b0 aaaao
b0 aaaap
0aaaaq
0aaaar
b0 aaaas
b0 aaaat
b0 aaaau
b0 aaaav
0aaaaw
0aaaax
b0 aaaay
b0 aaaaz
b0 aaaba
b0 aaabb
b0 aaabc
b0 aaabd
b0 aaabe
b0 aaabf
b0 aaabg
b0 aaabh
b0 aaabi
b0 aaabj
b0 aaabk
b0 aaabl
b0 aaabm
b0 aaabn
b0 aaabo
b0 aaabp
b0 aaabq
b0 aaabr
b0 aaabs
b0 aaabt
b0 aaabu
b0 aaabv
b0 aaabw
b0 aaabx
b0 aaaby
b0 aaabz
b0 aaaca
b0 aaacb
b0 aaacc
b0 aaacd
b0 aaace
b0 aaacf
b0 aaacg
b0 aaach
b0 aaaci
b0 aaacj
b0 aaack
b0 aaacl
b0 aaacm
b0 aaacn
b0 aaaco
b0 aaacp
b0 aaacq
b0 aaacr
b0 aaacs
b0 aaact
b0 aaacu
b0 aaacv
b0 aaacw
b0 aaacx
b0 aaacy
b0 aaacz
b0 aaada
b0 aaadb
b0 aaadc
b0 aaadd
b0 aaade
b0 aaadf
b0 aaadg
b0 aaadh
b0 aaadi
b0 aaadj
b0 aaadk
b0 aaadl
b0 aaadm
b0 aaadn
b0 aaado
b0 aaadp
b0 aaadq
b0 aaadr
b0 aaads
b0 aaadt
b0 aaadu
b0 aaadv
b0 aaadw
b0 aaadx
b0 aaady
b0 aaadz
b0 aaaea
b0 aaaeb
b0 aaaec
b0 aaaed
b0 aaaee
b0 aaaef
b0 aaaeg
b0 aaaeh
b0 aaaei
b0 aaaej
b0 aaaek
b0 aaael
b0 aaaem
b0 aaaen
b0 aaaeo
b0 aaaep
b0 aaaeq
b0 aaaer
b0 aaaes
$end

#5
1aaaaa

#10
0aaaaa

#15
1aaaaa

#20
0aaaaa
0aaaab

#25
1aaaaa

#30
0aaaaa

#35
1aaaaa
1aaaae
b1010 aaaai
1aaaak
b1 aaaao
1aaaaq

#40
0aaaaa

#45
1aaaaa
b1 aaaag
b1011 aaaai
b1 aaaan
b0 aaaao
b1 aaaat
b1 aaaau

#50
0aaaaa

#55
1aaaaa
b10 aaaag
b1100 aaaai
b10 aaaan
b10 aaaao
b10 aaaat
b10 aaaau

#60
0aaaaa

#65
1aaaaa
0aaaae
b0 aaaag
b0 aaaai
b1 aaaam
b0 aaaan
b101 aaaao
b1 aaaas
b0 aaaat
b0 aaaau

#70
0aaaaa

#75
1aaaaa
b1 aaaan
b100 aaaao
b1 aaaat
b1 aaaau

#80
0aaaaa

#85
1aaaaa
b10 aaaan
b11 aaaao
b10 aaaat
b10 aaaau

#90
0aaaaa

#95
1aaaaa
b10 aaaam
b0 aaaan
b111 aaaao
b10 aaaas
b0 aaaat
b0 aaaau

#100
0aaaaa

#105
1aaaaa
b1 aaaan
b0 aaaao
b1 aaaat
b1 aaaau

#110
0aaaaa

#115
1aaaaa
b10 aaaan
b1000 aaaao
b10 aaaat
b10 aaaau

#120
0aaaaa

#125
1aaaaa
0aaaak
b0 aaaam
b0 aaaan
b0 aaaao
0aaaaq
b0 aaaas
b0 aaaat
b0 aaaau

#130
0aaaaa

#135
1aaaaa

#140
0aaaaa

#145
1aaaaa

#150
0aaaaa

#155
1aaaaa
1aaaae
b1010 aaaai

#160
0aaaaa

#165
1aaaaa
b1 aaaag
b1011 aaaai

#170
0aaaaa

#175
1aaaaa
b10 aaaag
b1100 aaaai

#180
0aaaaa

#185
1aaaaa
0aaaae
b0 aaaag
b0 aaaai
b1010 aaact
b1011 aaacu
b1010 aaadj
b1011 aaadk

#190
0aaaaa

#195
1aaaaa
b0 aaact
b0 aaacu
b0 aaadj
b0 aaadk
b1010 aaadz
b1011 aaaea

#200
0aaaaa

#205
1aaaaa
b0 aaadz
b0 aaaea

#210
0aaaaa

#215
1aaaaa
b1010 aaach

#220
0aaaaa

#225
1aaaaa
b0 aaach
b1010 aaaci
b110010 aaack
b101100 aaacl

#230
0aaaaa

#235
1aaaaa
b0 aaaci
b1010 aaacj
b0 aaack
b110010 aaacl
b101100 aaacm
b1000110 aaacn
b1010 aaaep
b101100 aaaeq

#240
0aaaaa

#245
1aaaaa
b0 aaacj
b0 aaacl
b110010 aaacm
b0 aaacn
b1000110 aaaco
b0 aaaep
b110010 aaaeq

#250
0aaaaa

#255
1aaaaa
b0 aaacm
b0 aaaco
b1000110 aaacp
b0 aaaeq
b1000110 aaaer

#260
0aaaaa

#265
1aaaaa
b0 aaacp
b0 aaaer

